…
    ## `summarise()` has grouped output by 'month'. You can override using the
    ## `.groups` argument.

``` r
summary_by_month
```

    ## # A tibble: 24 × 9
    ## # Groups:   month [12]
    ##    month member_casual number_of_rides t_min  t_q1   t_median t_q3   t_mean   
    ##    <chr> <chr>                   <int> <drtn> <time> <time>   <time> <time>   
    ##  1 01    casual                  29237 1 secs 05'03" 08'10"   13'52" 14'51.17"
    ##  2 01    member                  64747 1 secs 04'18" 07'03"   11'45" 09'59.19"
    ##  3 02    casual                  32774 2 secs 05'30" 09'15"   16'59" 17'40.40"
    ##  4 02    member                  63487 1 secs 04'20" 07'13"   12'15" 10'29.48"
    ##  5 03    casual                  46786 1 secs 05'29" 09'11"   16'32" 16'43.28"
    ##  6 03    member                  84000 1 secs 04'20" 07'16"   12'14" 10'11.63"
    ##  7 04    casual                 110526 1 secs 06'46" 12'15"   23'59" 22'37.39"
    ##  8 04    member                 116732 1 secs 04'43" 08'10"   14'01" 11'33.10"
    ##  9 05    casual                 177025 1 secs 07'43" 13'57"   26'38" 24'31.58"
    ## 10 05    member                 157187 1 secs 05'15" 09'06"   15'41" 12'41.43"
    ## # ℹ 14 more rows
    ## # ℹ 1 more variable: t_max <time>
…
